-------------------------------------------------------------
产品名称: iOS SDK
发布版本: iOS_SDK_version: 5.4.13.5
研发人 : 李晓杰
定版日期: 2019.08.27
使用范围: 通用版本

SDK依赖:
1.ytx_ccpsdk: v5.4.12.18
2.ecmedia_version: v2.3.3.9

新增功能
1.群组信息修改里新增groupPhoto字段
2.新增会议通知note 26状态消息对象 IM消息类型
3.添加会议通用接口
问题修复
1.#155761 #155762 上海电信项目 socket重复登录 导致消息发送失败 和 没有回调 问题
-------------------------------------------------------------
产品名称: iOS SDK
发布版本: iOS_SDK_version: 5.4.13.4
研发人 : 李晓杰
定版日期: 无
使用范围: 通用版本

SDK依赖:
1.ytx_ccpsdk: v5.4.12.11
2.ecmedia_version: v2.3.3.7

问题修复
1.#155761 #155762 上海电信项目 socket重复登录 导致消息发送失败 和 没有回调 问题
-------------------------------------------------------------
产品名称: iOS SDK
发布版本: iOS_SDK_version: 5.4.13.3
研发人 : 李晓杰
定版日期: 无
使用范围: 通用版本

SDK依赖:
1.ytx_ccpsdk: v5.4.12.6
2.ecmedia_version: v2.3.3.7

问题修复
1.修改消息上抛机制

新增功能
1.可从指定消息版本号起拉取消息 ECDevice->login ECLoginInfo->version字段
2.离线消息单次拉取条数可配置 默认50条 ECDevice->login ECLoginInfo->pullOutCount字段
-------------------------------------------------------------
产品名称: iOS SDK
发布版本: iOS_SDK_version: 5.4.13.2
研发人 : 李晓杰
定版日期: 无
使用范围: 通用版本

SDK依赖:
1.ytx_ccpsdk: v5.4.12.6
2.ecmedia_version: v2.3.3.7

问题修复
1.收取离线消息时，消息推送未完成时计时器就销毁了
2.离线消息1000条一次收取，提高速度
3.落地电话收到180后未播放本地语音消息

新增功能
1.撤回消息方法 新增receiverId 字段。 ECMessageRevokeNotifyMsg->receiverId
2.会议信息更新通知添加最大人数字段 创建会议添加当前可用的最大并发用户数字段 ECConferenceInfo->suggestMaxMember